PWD /home/davide/Documents/PhD/06.Manoscritti/PROCEEDINGS/SFMM18/template
INPUT /usr/local/texlive/2015/texmf.cnf
INPUT /usr/local/texlive/2015/texmf-dist/web2c/texmf.cnf
INPUT /usr/local/texlive/2015/texmf-var/web2c/pdftex/pdflatex.fmt
INPUT main.tex
OUTPUT main.log
INPUT new-aiaa.cls
INPUT new-aiaa.cls
INPUT /usr/local/texlive/2015/texmf-dist/tex/latex/base/article.cls
INPUT /usr/local/texlive/2015/texmf-dist/tex/latex/base/article.cls
INPUT /usr/local/texlive/2015/texmf-dist/tex/latex/base/size10.clo
INPUT /usr/local/texlive/2015/texmf-dist/tex/latex/base/size10.clo
INPUT /usr/local/texlive/2015/texmf-dist/tex/latex/base/fontenc.sty
INPUT /usr/local/texlive/2015/texmf-dist/tex/latex/base/fontenc.sty
INPUT /usr/local/texlive/2015/texmf-dist/tex/latex/base/t1enc.def
INPUT /usr/local/texlive/2015/texmf-dist/tex/latex/base/t1enc.def
INPUT /usr/local/texlive/2015/texmf-dist/fonts/map/fontname/texfonts.map
INPUT /usr/local/texlive/2015/texmf-dist/fonts/tfm/jknappen/ec/ecrm1000.tfm
INPUT /usr/local/texlive/2015/texmf-dist/tex/latex/base/inputenc.sty
INPUT /usr/local/texlive/2015/texmf-dist/tex/latex/base/inputenc.sty
INPUT /usr/local/texlive/2015/texmf-dist/tex/latex/base/utf8.def
INPUT /usr/local/texlive/2015/texmf-dist/tex/latex/base/utf8.def
INPUT /usr/local/texlive/2015/texmf-dist/tex/latex/base/t1enc.dfu
INPUT /usr/local/texlive/2015/texmf-dist/tex/latex/base/t1enc.dfu
INPUT /usr/local/texlive/2015/texmf-dist/tex/latex/base/ot1enc.dfu
INPUT /usr/local/texlive/2015/texmf-dist/tex/latex/base/ot1enc.dfu
INPUT /usr/local/texlive/2015/texmf-dist/tex/latex/base/omsenc.dfu
INPUT /usr/local/texlive/2015/texmf-dist/tex/latex/base/omsenc.dfu
INPUT /usr/local/texlive/2015/texmf-dist/tex/latex/microtype/microtype.sty
INPUT /usr/local/texlive/2015/texmf-dist/tex/latex/microtype/microtype.sty
INPUT /usr/local/texlive/2015/texmf-dist/tex/latex/graphics/keyval.sty
INPUT /usr/local/texlive/2015/texmf-dist/tex/latex/graphics/keyval.sty
INPUT /usr/local/texlive/2015/texmf-dist/tex/latex/microtype/microtype-pdftex.def
INPUT /usr/local/texlive/2015/texmf-dist/tex/latex/microtype/microtype-pdftex.def
INPUT /usr/local/texlive/2015/texmf-dist/tex/latex/microtype/microtype.cfg
INPUT /usr/local/texlive/2015/texmf-dist/tex/latex/microtype/microtype.cfg
INPUT /usr/local/texlive/2015/texmf-dist/tex/latex/microtype/microtype.cfg
INPUT /usr/local/texlive/2015/texmf-dist/tex/latex/newtx/newtxtext.sty
INPUT /usr/local/texlive/2015/texmf-dist/tex/latex/newtx/newtxtext.sty
INPUT /usr/local/texlive/2015/texmf-dist/tex/latex/fontaxes/fontaxes.sty
INPUT /usr/local/texlive/2015/texmf-dist/tex/latex/fontaxes/fontaxes.sty
INPUT /usr/local/texlive/2015/texmf-dist/tex/latex/xkeyval/xkeyval.sty
INPUT /usr/local/texlive/2015/texmf-dist/tex/latex/xkeyval/xkeyval.sty
INPUT /usr/local/texlive/2015/texmf-dist/tex/generic/xkeyval/xkeyval.tex
INPUT /usr/local/texlive/2015/texmf-dist/tex/generic/xkeyval/xkvutils.tex
INPUT /usr/local/texlive/2015/texmf-dist/tex/latex/etoolbox/etoolbox.sty
INPUT /usr/local/texlive/2015/texmf-dist/tex/latex/etoolbox/etoolbox.sty
INPUT /usr/local/texlive/2015/texmf-dist/tex/latex/base/fontenc.sty
INPUT /usr/local/texlive/2015/texmf-dist/tex/latex/base/fontenc.sty
INPUT /usr/local/texlive/2015/texmf-dist/tex/latex/base/t1enc.def
INPUT /usr/local/texlive/2015/texmf-dist/tex/latex/base/t1enc.def
INPUT /usr/local/texlive/2015/texmf-dist/tex/latex/base/textcomp.sty
INPUT /usr/local/texlive/2015/texmf-dist/tex/latex/base/textcomp.sty
INPUT /usr/local/texlive/2015/texmf-dist/tex/latex/base/ts1enc.def
INPUT /usr/local/texlive/2015/texmf-dist/tex/latex/base/ts1enc.def
INPUT /usr/local/texlive/2015/texmf-dist/tex/latex/base/ts1enc.dfu
INPUT /usr/local/texlive/2015/texmf-dist/tex/latex/base/ts1enc.dfu
INPUT /usr/local/texlive/2015/texmf-dist/tex/latex/newtx/t1ntxtlf.fd
INPUT /usr/local/texlive/2015/texmf-dist/tex/latex/newtx/t1ntxtlf.fd
INPUT /usr/local/texlive/2015/texmf-dist/fonts/tfm/public/newtx/ntx-Regular-tlf-t1.tfm
INPUT /usr/local/texlive/2015/texmf-dist/tex/latex/newtx/newtxmath.sty
INPUT /usr/local/texlive/2015/texmf-dist/tex/latex/newtx/newtxmath.sty
INPUT /usr/local/texlive/2015/texmf-dist/tex/latex/amsmath/amsmath.sty
INPUT /usr/local/texlive/2015/texmf-dist/tex/latex/amsmath/amsmath.sty
INPUT /usr/local/texlive/2015/texmf-dist/tex/latex/amsmath/amstext.sty
INPUT /usr/local/texlive/2015/texmf-dist/tex/latex/amsmath/amstext.sty
INPUT /usr/local/texlive/2015/texmf-dist/tex/latex/amsmath/amsgen.sty
INPUT /usr/local/texlive/2015/texmf-dist/tex/latex/amsmath/amsgen.sty
INPUT /usr/local/texlive/2015/texmf-dist/tex/latex/amsmath/amsbsy.sty
INPUT /usr/local/texlive/2015/texmf-dist/tex/latex/amsmath/amsbsy.sty
INPUT /usr/local/texlive/2015/texmf-dist/tex/latex/amsmath/amsopn.sty
INPUT /usr/local/texlive/2015/texmf-dist/tex/latex/amsmath/amsopn.sty
INPUT /usr/local/texlive/2015/texmf-dist/tex/generic/ifxetex/ifxetex.sty
INPUT /usr/local/texlive/2015/texmf-dist/tex/generic/ifxetex/ifxetex.sty
INPUT /usr/local/texlive/2015/texmf-dist/tex/generic/oberdiek/ifluatex.sty
INPUT /usr/local/texlive/2015/texmf-dist/tex/generic/oberdiek/ifluatex.sty
INPUT /usr/local/texlive/2015/texmf-dist/tex/generic/kastrup/binhex.tex
INPUT /usr/local/texlive/2015/texmf-dist/tex/generic/kastrup/binhex.tex
INPUT /usr/local/texlive/2015/texmf-dist/tex/latex/geometry/geometry.sty
INPUT /usr/local/texlive/2015/texmf-dist/tex/latex/geometry/geometry.sty
INPUT /usr/local/texlive/2015/texmf-dist/tex/generic/oberdiek/ifpdf.sty
INPUT /usr/local/texlive/2015/texmf-dist/tex/generic/oberdiek/ifpdf.sty
INPUT /usr/local/texlive/2015/texmf-dist/tex/generic/oberdiek/ifvtex.sty
INPUT /usr/local/texlive/2015/texmf-dist/tex/generic/oberdiek/ifvtex.sty
INPUT /usr/local/texlive/2015/texmf-dist/tex/latex/enumitem/enumitem.sty
INPUT /usr/local/texlive/2015/texmf-dist/tex/latex/enumitem/enumitem.sty
INPUT /usr/local/texlive/2015/texmf-dist/tex/latex/footmisc/footmisc.sty
INPUT /usr/local/texlive/2015/texmf-dist/tex/latex/footmisc/footmisc.sty
INPUT /usr/local/texlive/2015/texmf-dist/tex/latex/setspace/setspace.sty
INPUT /usr/local/texlive/2015/texmf-dist/tex/latex/setspace/setspace.sty
INPUT /usr/local/texlive/2015/texmf-dist/tex/latex/abstract/abstract.sty
INPUT /usr/local/texlive/2015/texmf-dist/tex/latex/abstract/abstract.sty
INPUT /usr/local/texlive/2015/texmf-dist/tex/latex/preprint/authblk.sty
INPUT /usr/local/texlive/2015/texmf-dist/tex/latex/preprint/authblk.sty
INPUT /usr/local/texlive/2015/texmf-dist/tex/latex/titlesec/titlesec.sty
INPUT /usr/local/texlive/2015/texmf-dist/tex/latex/titlesec/titlesec.sty
INPUT /usr/local/texlive/2015/texmf-dist/tex/latex/lettrine/lettrine.sty
INPUT /usr/local/texlive/2015/texmf-dist/tex/latex/lettrine/lettrine.sty
INPUT /usr/local/texlive/2015/texmf-dist/tex/latex/lettrine/lettrine.cfg
INPUT /usr/local/texlive/2015/texmf-dist/tex/latex/lettrine/lettrine.cfg
INPUT /usr/local/texlive/2015/texmf-dist/tex/latex/caption/caption.sty
INPUT /usr/local/texlive/2015/texmf-dist/tex/latex/caption/caption.sty
INPUT /usr/local/texlive/2015/texmf-dist/tex/latex/caption/caption3.sty
INPUT /usr/local/texlive/2015/texmf-dist/tex/latex/caption/caption3.sty
INPUT /usr/local/texlive/2015/texmf-dist/tex/latex/quoting/quoting.sty
INPUT /usr/local/texlive/2015/texmf-dist/tex/latex/quoting/quoting.sty
INPUT /usr/local/texlive/2015/texmf-dist/tex/latex/oberdiek/kvoptions.sty
INPUT /usr/local/texlive/2015/texmf-dist/tex/latex/oberdiek/kvoptions.sty
INPUT /usr/local/texlive/2015/texmf-dist/tex/generic/oberdiek/ltxcmds.sty
INPUT /usr/local/texlive/2015/texmf-dist/tex/generic/oberdiek/ltxcmds.sty
INPUT /usr/local/texlive/2015/texmf-dist/tex/generic/oberdiek/kvsetkeys.sty
INPUT /usr/local/texlive/2015/texmf-dist/tex/generic/oberdiek/kvsetkeys.sty
INPUT /usr/local/texlive/2015/texmf-dist/tex/generic/oberdiek/infwarerr.sty
INPUT /usr/local/texlive/2015/texmf-dist/tex/generic/oberdiek/infwarerr.sty
INPUT /usr/local/texlive/2015/texmf-dist/tex/generic/oberdiek/etexcmds.sty
INPUT /usr/local/texlive/2015/texmf-dist/tex/generic/oberdiek/etexcmds.sty
INPUT /usr/local/texlive/2015/texmf-dist/tex/latex/natbib/natbib.sty
INPUT /usr/local/texlive/2015/texmf-dist/tex/latex/natbib/natbib.sty
INPUT /usr/local/texlive/2015/texmf-dist/tex/latex/url/url.sty
INPUT /usr/local/texlive/2015/texmf-dist/tex/latex/url/url.sty
INPUT /usr/local/texlive/2015/texmf-dist/tex/latex/hyperref/hyperref.sty
INPUT /usr/local/texlive/2015/texmf-dist/tex/latex/hyperref/hyperref.sty
INPUT /usr/local/texlive/2015/texmf-dist/tex/generic/oberdiek/hobsub-hyperref.sty
INPUT /usr/local/texlive/2015/texmf-dist/tex/generic/oberdiek/hobsub-hyperref.sty
INPUT /usr/local/texlive/2015/texmf-dist/tex/generic/oberdiek/hobsub-hyperref.sty
INPUT /usr/local/texlive/2015/texmf-dist/tex/generic/oberdiek/hobsub-generic.sty
INPUT /usr/local/texlive/2015/texmf-dist/tex/generic/oberdiek/hobsub-generic.sty
INPUT /usr/local/texlive/2015/texmf-dist/tex/latex/oberdiek/auxhook.sty
INPUT /usr/local/texlive/2015/texmf-dist/tex/latex/oberdiek/auxhook.sty
INPUT /usr/local/texlive/2015/texmf-dist/tex/latex/hyperref/pd1enc.def
INPUT /usr/local/texlive/2015/texmf-dist/tex/latex/hyperref/pd1enc.def
INPUT /usr/local/texlive/2015/texmf-dist/tex/latex/latexconfig/hyperref.cfg
INPUT /usr/local/texlive/2015/texmf-dist/tex/latex/latexconfig/hyperref.cfg
INPUT /usr/local/texlive/2015/texmf-dist/tex/latex/hyperref/hpdftex.def
INPUT /usr/local/texlive/2015/texmf-dist/tex/latex/hyperref/hpdftex.def
INPUT /usr/local/texlive/2015/texmf-dist/tex/latex/oberdiek/rerunfilecheck.sty
INPUT /usr/local/texlive/2015/texmf-dist/tex/latex/oberdiek/rerunfilecheck.sty
INPUT /usr/local/texlive/2015/texmf-dist/tex/latex/graphics/graphicx.sty
INPUT /usr/local/texlive/2015/texmf-dist/tex/latex/graphics/graphicx.sty
INPUT /usr/local/texlive/2015/texmf-dist/tex/latex/graphics/graphics.sty
INPUT /usr/local/texlive/2015/texmf-dist/tex/latex/graphics/graphics.sty
INPUT /usr/local/texlive/2015/texmf-dist/tex/latex/graphics/trig.sty
INPUT /usr/local/texlive/2015/texmf-dist/tex/latex/graphics/trig.sty
INPUT /usr/local/texlive/2015/texmf-dist/tex/latex/latexconfig/graphics.cfg
INPUT /usr/local/texlive/2015/texmf-dist/tex/latex/latexconfig/graphics.cfg
INPUT /usr/local/texlive/2015/texmf-dist/tex/latex/pdftex-def/pdftex.def
INPUT /usr/local/texlive/2015/texmf-dist/tex/latex/pdftex-def/pdftex.def
INPUT /usr/local/texlive/2015/texmf-dist/tex/latex/mhchem/mhchem.sty
INPUT /usr/local/texlive/2015/texmf-dist/tex/latex/mhchem/mhchem.sty
INPUT /usr/local/texlive/2015/texmf-dist/tex/latex/l3kernel/expl3.sty
INPUT /usr/local/texlive/2015/texmf-dist/tex/latex/l3kernel/expl3.sty
INPUT /usr/local/texlive/2015/texmf-dist/tex/latex/l3kernel/expl3-code.tex
INPUT /usr/local/texlive/2015/texmf-dist/tex/latex/l3kernel/expl3-code.tex
INPUT /usr/local/texlive/2015/texmf-dist/tex/generic/unicode-data/UnicodeData.txt
INPUT /usr/local/texlive/2015/texmf-dist/tex/generic/unicode-data/CaseFolding.txt
INPUT /usr/local/texlive/2015/texmf-dist/tex/generic/unicode-data/SpecialCasing.txt
INPUT /usr/local/texlive/2015/texmf-dist/tex/latex/l3kernel/l3pdfmode.def
INPUT /usr/local/texlive/2015/texmf-dist/tex/latex/l3kernel/l3pdfmode.def
INPUT /usr/local/texlive/2015/texmf-dist/tex/latex/l3packages/l3keys2e/l3keys2e.sty
INPUT /usr/local/texlive/2015/texmf-dist/tex/latex/l3packages/l3keys2e/l3keys2e.sty
INPUT /usr/local/texlive/2015/texmf-dist/tex/latex/l3experimental/l3str/l3regex.sty
INPUT /usr/local/texlive/2015/texmf-dist/tex/latex/l3experimental/l3str/l3regex.sty
INPUT /usr/local/texlive/2015/texmf-dist/tex/latex/l3experimental/l3str/l3tl-build.sty
INPUT /usr/local/texlive/2015/texmf-dist/tex/latex/l3experimental/l3str/l3tl-build.sty
INPUT /usr/local/texlive/2015/texmf-dist/tex/latex/l3experimental/l3str/l3tl-analysis.sty
INPUT /usr/local/texlive/2015/texmf-dist/tex/latex/l3experimental/l3str/l3tl-analysis.sty
INPUT /usr/local/texlive/2015/texmf-dist/tex/latex/l3experimental/l3str/l3flag.sty
INPUT /usr/local/texlive/2015/texmf-dist/tex/latex/l3experimental/l3str/l3flag.sty
INPUT /usr/local/texlive/2015/texmf-dist/tex/latex/l3experimental/l3str/l3str-convert.sty
INPUT /usr/local/texlive/2015/texmf-dist/tex/latex/l3experimental/l3str/l3str-convert.sty
INPUT /usr/local/texlive/2015/texmf-dist/tex/latex/tools/calc.sty
INPUT /usr/local/texlive/2015/texmf-dist/tex/latex/tools/calc.sty
INPUT /usr/local/texlive/2015/texmf-dist/tex/latex/chemgreek/chemgreek.sty
INPUT /usr/local/texlive/2015/texmf-dist/tex/latex/chemgreek/chemgreek.sty
INPUT /usr/local/texlive/2015/texmf-dist/tex/latex/l3packages/xparse/xparse.sty
INPUT /usr/local/texlive/2015/texmf-dist/tex/latex/l3packages/xparse/xparse.sty
INPUT /usr/local/texlive/2015/texmf-dist/tex/latex/base/ifthen.sty
INPUT /usr/local/texlive/2015/texmf-dist/tex/latex/base/ifthen.sty
INPUT /usr/local/texlive/2015/texmf-dist/tex/latex/siunitx/siunitx.sty
INPUT /usr/local/texlive/2015/texmf-dist/tex/latex/siunitx/siunitx.sty
INPUT /usr/local/texlive/2015/texmf-dist/tex/latex/tools/array.sty
INPUT /usr/local/texlive/2015/texmf-dist/tex/latex/tools/array.sty
INPUT /usr/local/texlive/2015/texmf-dist/tex/latex/beamer/translator/translator.sty
INPUT /usr/local/texlive/2015/texmf-dist/tex/latex/beamer/translator/translator.sty
INPUT /usr/local/texlive/2015/texmf-dist/tex/latex/beamer/translator/translator.sty
INPUT /usr/local/texlive/2015/texmf-dist/tex/latex/beamer/translator/translator-language-mappings.tex
INPUT /usr/local/texlive/2015/texmf-dist/tex/latex/beamer/translator/translator-language-mappings.tex
INPUT /usr/local/texlive/2015/texmf-dist/tex/latex/tools/longtable.sty
INPUT /usr/local/texlive/2015/texmf-dist/tex/latex/tools/longtable.sty
INPUT /usr/local/texlive/2015/texmf-dist/tex/latex/tools/tabularx.sty
INPUT /usr/local/texlive/2015/texmf-dist/tex/latex/tools/tabularx.sty
INPUT main.aux
INPUT main.aux
OUTPUT main.aux
INPUT /usr/local/texlive/2015/texmf-dist/tex/latex/newtx/omlntxmi.fd
INPUT /usr/local/texlive/2015/texmf-dist/tex/latex/newtx/omlntxmi.fd
INPUT /usr/local/texlive/2015/texmf-dist/tex/latex/newtx/omsntxsy.fd
INPUT /usr/local/texlive/2015/texmf-dist/tex/latex/newtx/omsntxsy.fd
INPUT /usr/local/texlive/2015/texmf-dist/tex/latex/newtx/untxexa.fd
INPUT /usr/local/texlive/2015/texmf-dist/tex/latex/newtx/untxexa.fd
INPUT /usr/local/texlive/2015/texmf-dist/tex/latex/base/ts1cmr.fd
INPUT /usr/local/texlive/2015/texmf-dist/tex/latex/base/ts1cmr.fd
INPUT /usr/local/texlive/2015/texmf-dist/tex/latex/caption/ltcaption.sty
INPUT /usr/local/texlive/2015/texmf-dist/tex/latex/caption/ltcaption.sty
INPUT /usr/local/texlive/2015/texmf-dist/tex/latex/hyperref/nameref.sty
INPUT /usr/local/texlive/2015/texmf-dist/tex/latex/hyperref/nameref.sty
INPUT /usr/local/texlive/2015/texmf-dist/tex/generic/oberdiek/gettitlestring.sty
INPUT /usr/local/texlive/2015/texmf-dist/tex/generic/oberdiek/gettitlestring.sty
INPUT main.out
INPUT main.out
INPUT main.out
INPUT main.out
OUTPUT main.pdf
INPUT ./main.out
INPUT ./main.out
OUTPUT main.out
INPUT /usr/local/texlive/2015/texmf-dist/tex/context/base/supp-pdf.mkii
INPUT /usr/local/texlive/2015/texmf-dist/tex/context/base/supp-pdf.mkii
INPUT /usr/local/texlive/2015/texmf-dist/tex/latex/oberdiek/epstopdf-base.sty
INPUT /usr/local/texlive/2015/texmf-dist/tex/latex/oberdiek/epstopdf-base.sty
INPUT /usr/local/texlive/2015/texmf-dist/tex/latex/oberdiek/grfext.sty
INPUT /usr/local/texlive/2015/texmf-dist/tex/latex/oberdiek/grfext.sty
INPUT /usr/local/texlive/2015/texmf-dist/tex/latex/latexconfig/epstopdf-sys.cfg
INPUT /usr/local/texlive/2015/texmf-dist/tex/latex/latexconfig/epstopdf-sys.cfg
INPUT /usr/local/texlive/2015/texmf-dist/tex/latex/beamer/translator/dicts/translator-basic-dictionary/translator-basic-dictionary-English.dict
INPUT /usr/local/texlive/2015/texmf-dist/tex/latex/beamer/translator/dicts/translator-basic-dictionary/translator-basic-dictionary-English.dict
INPUT /usr/local/texlive/2015/texmf-dist/tex/latex/siunitx/siunitx-abbreviations.cfg
INPUT /usr/local/texlive/2015/texmf-dist/tex/latex/siunitx/siunitx-abbreviations.cfg
INPUT /usr/local/texlive/2015/texmf-dist/tex/latex/newtx/ot1ntxtlf.fd
INPUT /usr/local/texlive/2015/texmf-dist/tex/latex/newtx/ot1ntxtlf.fd
INPUT /usr/local/texlive/2015/texmf-dist/fonts/tfm/public/newtx/ntx-Regular-tlf-ot1.tfm
INPUT /usr/local/texlive/2015/texmf-dist/fonts/tfm/public/newtx/ntx-Regular-tlf-ot1.tfm
INPUT /usr/local/texlive/2015/texmf-dist/fonts/tfm/public/newtx/ntx-Regular-tlf-ot1.tfm
INPUT /usr/local/texlive/2015/texmf-dist/fonts/tfm/public/newtx/ntxmi.tfm
INPUT /usr/local/texlive/2015/texmf-dist/fonts/tfm/public/newtx/ntxmi7.tfm
INPUT /usr/local/texlive/2015/texmf-dist/fonts/tfm/public/newtx/ntxmi5.tfm
INPUT /usr/local/texlive/2015/texmf-dist/fonts/tfm/public/newtx/ntxsy.tfm
INPUT /usr/local/texlive/2015/texmf-dist/fonts/tfm/public/newtx/ntxsy7.tfm
INPUT /usr/local/texlive/2015/texmf-dist/fonts/tfm/public/newtx/ntxsy5.tfm
INPUT /usr/local/texlive/2015/texmf-dist/fonts/tfm/public/newtx/ntxexx.tfm
INPUT /usr/local/texlive/2015/texmf-dist/fonts/tfm/public/newtx/ntxexx.tfm
INPUT /usr/local/texlive/2015/texmf-dist/fonts/tfm/public/newtx/ntxexx.tfm
INPUT /usr/local/texlive/2015/texmf-dist/tex/latex/newtx/untxmia.fd
INPUT /usr/local/texlive/2015/texmf-dist/tex/latex/newtx/untxmia.fd
INPUT /usr/local/texlive/2015/texmf-dist/fonts/tfm/public/newtx/ntxmia.tfm
INPUT /usr/local/texlive/2015/texmf-dist/fonts/tfm/public/newtx/ntxmia.tfm
INPUT /usr/local/texlive/2015/texmf-dist/fonts/tfm/public/newtx/ntxmia.tfm
INPUT /usr/local/texlive/2015/texmf-dist/tex/latex/newtx/untxsym.fd
INPUT /usr/local/texlive/2015/texmf-dist/tex/latex/newtx/untxsym.fd
INPUT /usr/local/texlive/2015/texmf-dist/fonts/tfm/public/newtx/ntxsym.tfm
INPUT /usr/local/texlive/2015/texmf-dist/fonts/tfm/public/newtx/ntxsym.tfm
INPUT /usr/local/texlive/2015/texmf-dist/fonts/tfm/public/newtx/ntxsym.tfm
INPUT /usr/local/texlive/2015/texmf-dist/tex/latex/newtx/untxsyc.fd
INPUT /usr/local/texlive/2015/texmf-dist/tex/latex/newtx/untxsyc.fd
INPUT /usr/local/texlive/2015/texmf-dist/fonts/tfm/public/newtx/ntxsyc.tfm
INPUT /usr/local/texlive/2015/texmf-dist/fonts/tfm/public/newtx/ntxsyc.tfm
INPUT /usr/local/texlive/2015/texmf-dist/fonts/tfm/public/newtx/ntxsyc.tfm
INPUT /usr/local/texlive/2015/texmf-dist/fonts/tfm/public/newtx/ntxexa.tfm
INPUT /usr/local/texlive/2015/texmf-dist/fonts/tfm/public/newtx/ntxexa.tfm
INPUT /usr/local/texlive/2015/texmf-dist/fonts/tfm/public/newtx/ntxexa.tfm
INPUT /usr/local/texlive/2015/texmf-dist/tex/latex/tex-gyre/t1qhv.fd
INPUT /usr/local/texlive/2015/texmf-dist/tex/latex/tex-gyre/t1qhv.fd
INPUT /usr/local/texlive/2015/texmf-dist/fonts/tfm/public/tex-gyre/ec-qhvr.tfm
INPUT /usr/local/texlive/2015/texmf-dist/fonts/tfm/public/tex-gyre/ec-qhvr.tfm
INPUT /usr/local/texlive/2015/texmf-dist/fonts/tfm/public/tex-gyre/ec-qhvr.tfm
INPUT /usr/local/texlive/2015/texmf-dist/tex/latex/newtx/t1ntxtt.fd
INPUT /usr/local/texlive/2015/texmf-dist/tex/latex/newtx/t1ntxtt.fd
INPUT /usr/local/texlive/2015/texmf-dist/fonts/tfm/public/txfonts/t1xtt.tfm
INPUT /usr/local/texlive/2015/texmf-dist/fonts/tfm/public/txfonts/t1xtt.tfm
INPUT /usr/local/texlive/2015/texmf-dist/fonts/tfm/public/txfonts/t1xtt.tfm
INPUT /usr/local/texlive/2015/texmf-dist/fonts/tfm/public/newtx/ntx-Regular-tlf-t1.tfm
INPUT /usr/local/texlive/2015/texmf-dist/fonts/tfm/public/newtx/ntx-Bold-tlf-t1.tfm
INPUT /usr/local/texlive/2015/texmf-dist/fonts/tfm/public/newtx/ntx-Regular-tlf-t1.tfm
INPUT /usr/local/texlive/2015/texmf-dist/tex/latex/newtx/ts1ntxtlf.fd
INPUT /usr/local/texlive/2015/texmf-dist/tex/latex/newtx/ts1ntxtlf.fd
INPUT /usr/local/texlive/2015/texmf-dist/fonts/tfm/public/tex-gyre/ts1-qtmr.tfm
INPUT /usr/local/texlive/2015/texmf-dist/fonts/tfm/public/newtx/ntx-Regular-tlf-t1.tfm
INPUT /usr/local/texlive/2015/texmf-dist/fonts/tfm/public/newtx/ntx-Regular-tlf-ot1.tfm
INPUT /usr/local/texlive/2015/texmf-dist/fonts/tfm/public/newtx/ntx-Regular-tlf-ot1.tfm
INPUT /usr/local/texlive/2015/texmf-dist/fonts/tfm/public/newtx/ntxmi7.tfm
INPUT /usr/local/texlive/2015/texmf-dist/fonts/tfm/public/newtx/ntxmi5.tfm
INPUT /usr/local/texlive/2015/texmf-dist/fonts/tfm/public/newtx/ntxsy7.tfm
INPUT /usr/local/texlive/2015/texmf-dist/fonts/tfm/public/newtx/ntxsy5.tfm
INPUT /usr/local/texlive/2015/texmf-dist/fonts/tfm/public/newtx/ntxexx.tfm
INPUT /usr/local/texlive/2015/texmf-dist/fonts/tfm/public/newtx/ntxexx.tfm
INPUT /usr/local/texlive/2015/texmf-dist/fonts/tfm/public/tex-gyre/ec-qhvr.tfm
INPUT /usr/local/texlive/2015/texmf-dist/fonts/tfm/public/tex-gyre/ec-qhvr.tfm
INPUT /usr/local/texlive/2015/texmf-dist/fonts/tfm/public/txfonts/t1xtt.tfm
INPUT /usr/local/texlive/2015/texmf-dist/fonts/tfm/public/txfonts/t1xtt.tfm
INPUT /usr/local/texlive/2015/texmf-dist/fonts/tfm/public/newtx/ntxmia.tfm
INPUT /usr/local/texlive/2015/texmf-dist/fonts/tfm/public/newtx/ntxmia.tfm
INPUT /usr/local/texlive/2015/texmf-dist/fonts/tfm/public/newtx/ntxsym.tfm
INPUT /usr/local/texlive/2015/texmf-dist/fonts/tfm/public/newtx/ntxsym.tfm
INPUT /usr/local/texlive/2015/texmf-dist/fonts/tfm/public/newtx/ntxsyc.tfm
INPUT /usr/local/texlive/2015/texmf-dist/fonts/tfm/public/newtx/ntxsyc.tfm
INPUT /usr/local/texlive/2015/texmf-dist/fonts/tfm/public/newtx/ntxexa.tfm
INPUT /usr/local/texlive/2015/texmf-dist/fonts/tfm/public/newtx/ntxexa.tfm
INPUT /usr/local/texlive/2015/texmf-dist/fonts/tfm/public/newtx/ntx-Regular-tlf-t1.tfm
INPUT /usr/local/texlive/2015/texmf-dist/fonts/tfm/public/tex-gyre/ts1-qtmr.tfm
INPUT /usr/local/texlive/2015/texmf-dist/fonts/tfm/public/newtx/ntx-Italic-tlf-t1.tfm
INPUT /usr/local/texlive/2015/texmf-dist/fonts/tfm/public/newtx/ntx-Bold-tlf-t1.tfm
INPUT /usr/local/texlive/2015/texmf-dist/fonts/tfm/public/newtx/ntx-Bold-tlf-t1.tfm
INPUT /usr/local/texlive/2015/texmf-dist/fonts/tfm/public/newtx/ntx-Regular-tlf-t1.tfm
INPUT /usr/local/texlive/2015/texmf-dist/fonts/tfm/public/newtx/ntx-Bold-tlf-t1.tfm
INPUT /usr/local/texlive/2015/texmf-var/fonts/map/pdftex/updmap/pdftex.map
INPUT /usr/local/texlive/2015/texmf-dist/fonts/vf/public/newtx/ntxmi.vf
INPUT /usr/local/texlive/2015/texmf-dist/fonts/tfm/public/txfonts/txmi.tfm
INPUT /usr/local/texlive/2015/texmf-dist/fonts/tfm/public/newtx/rntxmi.tfm
INPUT /usr/local/texlive/2015/texmf-dist/fonts/vf/public/txfonts/txmi.vf
INPUT /usr/local/texlive/2015/texmf-dist/fonts/tfm/public/txfonts/rtxmi.tfm
INPUT /usr/local/texlive/2015/texmf-dist/fonts/tfm/public/txfonts/rtxptmri.tfm
INPUT /usr/local/texlive/2015/texmf-dist/fonts/vf/public/newtx/ntxmi7.vf
INPUT /usr/local/texlive/2015/texmf-dist/fonts/tfm/public/newtx/rtxmi7.tfm
INPUT /usr/local/texlive/2015/texmf-dist/fonts/tfm/public/newtx/rntxmi7.tfm
INPUT /usr/local/texlive/2015/texmf-dist/fonts/tfm/public/newtx/ntx-Regular-tlf-sc-t1.tfm
INPUT /usr/local/texlive/2015/texmf-dist/fonts/tfm/public/newtx/ntx-Regular-tlf-t1.tfm
INPUT /usr/local/texlive/2015/texmf-dist/fonts/tfm/public/newtx/ntx-Regular-tlf-t1.tfm
INPUT /usr/local/texlive/2015/texmf-dist/fonts/vf/public/newtx/ntxmia.vf
INPUT /usr/local/texlive/2015/texmf-dist/fonts/tfm/public/txfonts/txmia.tfm
INPUT /usr/local/texlive/2015/texmf-dist/fonts/tfm/public/newtx/ntxsyralt.tfm
INPUT /usr/local/texlive/2015/texmf-dist/fonts/tfm/public/txfonts/txsyc.tfm
INPUT /usr/local/texlive/2015/texmf-dist/fonts/tfm/public/txfonts/txr.tfm
INPUT /usr/local/texlive/2015/texmf-dist/fonts/tfm/public/newtx/ntxexb.tfm
INPUT /usr/local/texlive/2015/texmf-dist/fonts/tfm/public/newtx/rtxmio.tfm
INPUT /usr/local/texlive/2015/texmf-dist/fonts/tfm/public/txfonts/txsyb.tfm
INPUT /usr/local/texlive/2015/texmf-dist/fonts/tfm/adobe/times/ptmr8r.tfm
INPUT /usr/local/texlive/2015/texmf-dist/fonts/tfm/public/boondox/zxxrl7z.tfm
INPUT /usr/local/texlive/2015/texmf-dist/fonts/tfm/public/tex-gyre/ts1-qtmr.tfm
INPUT /usr/local/texlive/2015/texmf-dist/fonts/vf/public/newtx/ntxsy.vf
INPUT /usr/local/texlive/2015/texmf-dist/fonts/tfm/public/txfonts/txsy.tfm
INPUT /usr/local/texlive/2015/texmf-dist/fonts/vf/public/txfonts/txr.vf
INPUT /usr/local/texlive/2015/texmf-dist/fonts/tfm/public/txfonts/rtxptmr.tfm
INPUT /usr/local/texlive/2015/texmf-dist/fonts/tfm/public/txfonts/rtxr.tfm
INPUT graph.jpg
INPUT ./graph.jpg
INPUT ./graph.jpg
INPUT /usr/local/texlive/2015/texmf-dist/fonts/vf/public/newtx/ntxsy7.vf
INPUT /usr/local/texlive/2015/texmf-dist/fonts/tfm/public/txfonts/txsy.tfm
INPUT /usr/local/texlive/2015/texmf-dist/fonts/tfm/public/newtx/ntx-Regular-tlf-ot1.tfm
INPUT /usr/local/texlive/2015/texmf-dist/fonts/tfm/public/newtx/ntx-Regular-tlf-ot1.tfm
INPUT /usr/local/texlive/2015/texmf-dist/fonts/tfm/public/newtx/ntxmi5.tfm
INPUT /usr/local/texlive/2015/texmf-dist/fonts/tfm/public/newtx/ntxmi5.tfm
INPUT /usr/local/texlive/2015/texmf-dist/fonts/tfm/public/newtx/ntxsy5.tfm
INPUT /usr/local/texlive/2015/texmf-dist/fonts/tfm/public/newtx/ntxsy5.tfm
INPUT /usr/local/texlive/2015/texmf-dist/fonts/tfm/public/newtx/ntxexx.tfm
INPUT /usr/local/texlive/2015/texmf-dist/fonts/tfm/public/newtx/ntxexx.tfm
INPUT /usr/local/texlive/2015/texmf-dist/fonts/tfm/public/tex-gyre/ec-qhvr.tfm
INPUT /usr/local/texlive/2015/texmf-dist/fonts/tfm/public/tex-gyre/ec-qhvr.tfm
INPUT /usr/local/texlive/2015/texmf-dist/fonts/tfm/public/txfonts/t1xtt.tfm
INPUT /usr/local/texlive/2015/texmf-dist/fonts/tfm/public/txfonts/t1xtt.tfm
INPUT /usr/local/texlive/2015/texmf-dist/fonts/tfm/public/newtx/ntxmia.tfm
INPUT /usr/local/texlive/2015/texmf-dist/fonts/tfm/public/newtx/ntxmia.tfm
INPUT /usr/local/texlive/2015/texmf-dist/fonts/tfm/public/newtx/ntxsym.tfm
INPUT /usr/local/texlive/2015/texmf-dist/fonts/tfm/public/newtx/ntxsym.tfm
INPUT /usr/local/texlive/2015/texmf-dist/fonts/tfm/public/newtx/ntxsyc.tfm
INPUT /usr/local/texlive/2015/texmf-dist/fonts/tfm/public/newtx/ntxsyc.tfm
INPUT /usr/local/texlive/2015/texmf-dist/fonts/tfm/public/newtx/ntxexa.tfm
INPUT /usr/local/texlive/2015/texmf-dist/fonts/tfm/public/newtx/ntxexa.tfm
INPUT /usr/local/texlive/2015/texmf-dist/fonts/tfm/public/newtx/ntx-Regular-tlf-t1.tfm
INPUT /usr/local/texlive/2015/texmf-dist/fonts/tfm/public/newtx/ntx-Regular-tlf-ot1.tfm
INPUT /usr/local/texlive/2015/texmf-dist/fonts/tfm/public/newtx/ntx-Regular-tlf-ot1.tfm
INPUT /usr/local/texlive/2015/texmf-dist/fonts/tfm/public/newtx/ntxmi5.tfm
INPUT /usr/local/texlive/2015/texmf-dist/fonts/tfm/public/newtx/ntxmi5.tfm
INPUT /usr/local/texlive/2015/texmf-dist/fonts/tfm/public/newtx/ntxsy5.tfm
INPUT /usr/local/texlive/2015/texmf-dist/fonts/tfm/public/newtx/ntxsy5.tfm
INPUT /usr/local/texlive/2015/texmf-dist/fonts/tfm/public/newtx/ntxexx.tfm
INPUT /usr/local/texlive/2015/texmf-dist/fonts/tfm/public/newtx/ntxexx.tfm
INPUT /usr/local/texlive/2015/texmf-dist/fonts/tfm/public/tex-gyre/ec-qhvr.tfm
INPUT /usr/local/texlive/2015/texmf-dist/fonts/tfm/public/tex-gyre/ec-qhvr.tfm
INPUT /usr/local/texlive/2015/texmf-dist/fonts/tfm/public/txfonts/t1xtt.tfm
INPUT /usr/local/texlive/2015/texmf-dist/fonts/tfm/public/txfonts/t1xtt.tfm
INPUT /usr/local/texlive/2015/texmf-dist/fonts/tfm/public/newtx/ntxmia.tfm
INPUT /usr/local/texlive/2015/texmf-dist/fonts/tfm/public/newtx/ntxmia.tfm
INPUT /usr/local/texlive/2015/texmf-dist/fonts/tfm/public/newtx/ntxsym.tfm
INPUT /usr/local/texlive/2015/texmf-dist/fonts/tfm/public/newtx/ntxsym.tfm
INPUT /usr/local/texlive/2015/texmf-dist/fonts/tfm/public/newtx/ntxsyc.tfm
INPUT /usr/local/texlive/2015/texmf-dist/fonts/tfm/public/newtx/ntxsyc.tfm
INPUT /usr/local/texlive/2015/texmf-dist/fonts/tfm/public/newtx/ntxexa.tfm
INPUT /usr/local/texlive/2015/texmf-dist/fonts/tfm/public/newtx/ntxexa.tfm
INPUT /usr/local/texlive/2015/texmf-dist/fonts/vf/public/newtx/ntxexx.vf
INPUT /usr/local/texlive/2015/texmf-dist/fonts/tfm/public/txfonts/txex.tfm
INPUT /usr/local/texlive/2015/texmf-dist/fonts/tfm/public/newtx/txex-bar.tfm
INPUT /usr/local/texlive/2015/texmf-dist/fonts/tfm/public/newtx/ntxexmods.tfm
INPUT /usr/local/texlive/2015/texmf-dist/fonts/tfm/public/newtx/ntxexb.tfm
INPUT main.bbl
INPUT main.bbl
INPUT /usr/local/texlive/2015/texmf-dist/fonts/tfm/public/newtx/ntx-Regular-tlf-t1.tfm
INPUT /usr/local/texlive/2015/texmf-dist/fonts/tfm/public/newtx/ntx-Italic-tlf-t1.tfm
INPUT /usr/local/texlive/2015/texmf-dist/fonts/tfm/public/newtx/ntx-Regular-tlf-ot1.tfm
INPUT /usr/local/texlive/2015/texmf-dist/fonts/tfm/public/newtx/ntxmi.tfm
INPUT /usr/local/texlive/2015/texmf-dist/fonts/tfm/public/newtx/ntxsy.tfm
INPUT /usr/local/texlive/2015/texmf-dist/fonts/tfm/public/newtx/ntxexx.tfm
INPUT /usr/local/texlive/2015/texmf-dist/fonts/tfm/public/tex-gyre/ec-qhvr.tfm
INPUT /usr/local/texlive/2015/texmf-dist/fonts/tfm/public/txfonts/t1xtt.tfm
INPUT /usr/local/texlive/2015/texmf-dist/fonts/tfm/public/newtx/ntxmia.tfm
INPUT /usr/local/texlive/2015/texmf-dist/fonts/tfm/public/newtx/ntxsym.tfm
INPUT /usr/local/texlive/2015/texmf-dist/fonts/tfm/public/newtx/ntxsyc.tfm
INPUT /usr/local/texlive/2015/texmf-dist/fonts/tfm/public/newtx/ntxexa.tfm
INPUT main.aux
INPUT ./main.out
INPUT ./main.out
INPUT /usr/local/texlive/2015/texmf-dist/fonts/enc/dvips/base/8r.enc
INPUT /usr/local/texlive/2015/texmf-dist/fonts/enc/dvips/newtx/ntx-ot1-tlf.enc
INPUT /usr/local/texlive/2015/texmf-dist/fonts/enc/dvips/newtx/ntx-ec-tlf-sc.enc
INPUT /usr/local/texlive/2015/texmf-dist/fonts/enc/dvips/newtx/ntx-ec-tlf.enc
INPUT /usr/local/texlive/2015/texmf-dist/fonts/enc/dvips/tex-gyre/q-ts1.enc
INPUT /usr/local/texlive/2015/texmf-dist/fonts/type1/public/tex-gyre/qtmb.pfb
INPUT /usr/local/texlive/2015/texmf-dist/fonts/type1/public/tex-gyre/qtmr.pfb
INPUT /usr/local/texlive/2015/texmf-dist/fonts/type1/public/tex-gyre/qtmri.pfb
INPUT /usr/local/texlive/2015/texmf-dist/fonts/type1/public/newtx/rntxmi.pfb
INPUT /usr/local/texlive/2015/texmf-dist/fonts/type1/public/newtx/rntxmi7.pfb
INPUT /usr/local/texlive/2015/texmf-dist/fonts/type1/public/txfonts/rtxmi.pfb
INPUT /usr/local/texlive/2015/texmf-dist/fonts/type1/public/txfonts/rtxr.pfb
INPUT /usr/local/texlive/2015/texmf-dist/fonts/type1/public/txfonts/t1xtt.pfb
INPUT /usr/local/texlive/2015/texmf-dist/fonts/type1/public/txfonts/txex.pfb
INPUT /usr/local/texlive/2015/texmf-dist/fonts/type1/public/txfonts/txmia.pfb
INPUT /usr/local/texlive/2015/texmf-dist/fonts/type1/public/txfonts/txsy.pfb
INPUT /usr/local/texlive/2015/texmf-dist/fonts/type1/urw/times/utmr8a.pfb
INPUT /usr/local/texlive/2015/texmf-dist/fonts/type1/urw/times/utmri8a.pfb
