\relax 
\providecommand\hyper@newdestlabel[2]{}
\bibstyle{new-aiaa}
\providecommand\HyperFirstAtBeginDocument{\AtBeginDocument}
\HyperFirstAtBeginDocument{\ifx\hyper@anchor\@undefined
\global\let\oldcontentsline\contentsline
\gdef\contentsline#1#2#3#4{\oldcontentsline{#1}{#2}{#3}}
\global\let\oldnewlabel\newlabel
\gdef\newlabel#1#2{\newlabelxx{#1}#2}
\gdef\newlabelxx#1#2#3#4#5#6{\oldnewlabel{#1}{{#2}{#3}}}
\AtEndDocument{\ifx\hyper@anchor\@undefined
\let\contentsline\oldcontentsline
\let\newlabel\oldnewlabel
\fi}
\fi}
\global\let\hyper@last\relax 
\gdef\HyperFirstAtBeginDocument#1{#1}
\providecommand\HyField@AuxAddToFields[1]{}
\providecommand\HyField@AuxAddToCoFields[2]{}
\gdef \LT@i {\LT@entry 
    {1}{43.90997pt}\LT@entry 
    {1}{357.26001pt}}
\citation{Koltiska2016}
\citation{Colombo2014,Colombo2015,Rosengren2017}
\citation{Cefola1974,Velez1974,McClain1977,McClain1978,Danielson1995,Metris1995,Cefola2014}
\citation{Uphoff1973,Ely2014}
\citation{Lara2017}
\citation{Stiefel1971}
\citation{Janin1974}
\citation{Stiefel1971}
\citation{Bond1996}
\citation{Pelaez2007,Bau2013,Bau2015,Roa2015,Bau2016}
\@writefile{toc}{\contentsline {section}{\numberline {I}Introduction}{2}{section.1}}
\citation{Musen1961}
\citation{Stiefel1971}
\citation{Bau2015}
\citation{Amato2017}
\citation{Ferrando2008}
\@writefile{toc}{\contentsline {section}{\numberline {II}Description of {\texttt  {THALASSA}}\xspace  }{3}{section.2}}
\newlabel{sec:code_desc}{{II}{3}{Description of \Thalassa }{section.2}{}}
\@writefile{toc}{\contentsline {subsection}{\numberline {A}Equations of motion}{3}{subsection.2.1}}
\newlabel{eq:Cowell2BP}{{1}{3}{Equations of motion}{equation.2.1}{}}
\citation{Amato2017,Stiefel1971}
\citation{Stiefel1971,Bau2015}
\citation{Roa2015,Bau2016}
\citation{Stiefel1971}
\citation{Bau2015}
\citation{Hindmarsh1983}
\newlabel{eq:genSundman}{{3}{4}{Equations of motion}{equation.2.3}{}}
\@writefile{toc}{\contentsline {subsection}{\numberline {B}Numerical solver}{4}{subsection.2.2}}
\citation{Hiebert1980}
\citation{Amato2017}
\citation{Meeus1998}
\citation{Acton1996}
\citation{CNES2016}
\newlabel{eq:evloc}{{5}{5}{Numerical solver}{equation.2.5}{}}
\@writefile{toc}{\contentsline {subsection}{\numberline {C}Trajectory splitting algorithm}{5}{subsection.2.3}}
\newlabel{sec:traj_split}{{II.C}{5}{Trajectory splitting algorithm}{subsection.2.3}{}}
\newlabel{eq:switch_crit}{{6}{5}{Trajectory splitting algorithm}{equation.2.6}{}}
\@writefile{toc}{\contentsline {subsection}{\numberline {D}Physical model}{5}{subsection.2.4}}
\newlabel{sec:thalassa_phys}{{II.D}{5}{Physical model}{subsection.2.4}{}}
\@writefile{toc}{\contentsline {subsection}{\numberline {E}Code availability}{5}{subsection.2.5}}
\citation{Bull2001,Eichhorn2016}
\@writefile{lot}{\contentsline {table}{\numberline {1}{\ignorespaces Initial Modified Julian Date and osculating orbital elements for the Galileo test case.\relax }}{6}{table.caption.1}}
\providecommand*\caption@xref[2]{\@setref\relax\@undefined{#1}}
\newlabel{tab:ICs_Galileo}{{1}{6}{Initial Modified Julian Date and osculating orbital elements for the Galileo test case.\relax }{table.caption.1}{}}
\@writefile{toc}{\contentsline {section}{\numberline {III}Performance for high-altitude orbits}{6}{section.3}}
\newlabel{sec:high_alt}{{III}{6}{Performance for high-altitude orbits}{section.3}{}}
\@writefile{toc}{\contentsline {subsection}{\numberline {A}Galileo}{6}{subsection.3.1}}
\newlabel{subsec:Galileo}{{III.A}{6}{Galileo}{subsection.3.1}{}}
\@writefile{lof}{\contentsline {figure}{\numberline {1}{\ignorespaces Orbital elements as a function of time for the propagation of the Galileo initial conditions in \autoref  {tab:ICs_Galileo} for 200 years. The curves ``{\texttt  {THALASSA}}\xspace  {}'' and ``{\texttt  {STELA}}\xspace  {} (osc)'' refer to the osculating orbital elements obtained in the reference propagation with {\texttt  {THALASSA}}\xspace  {}, and with the {\texttt  {STELA}}\xspace  {} propagation for $L = 4$, $N_\mathrm  {tess} = 0.4$ and $\Delta {t} = \SI {120}{h}$, which exhibit a significant overlap. The curve ``{\texttt  {STELA}}\xspace  {} (mean)'' refers to the mean orbital elements obtained from the {\texttt  {STELA}}\xspace  {} propagation. The semi-major axis is plotted as a difference from the initial osculating value.\relax }}{7}{figure.caption.2}}
\newlabel{fig:Galileo_COE}{{1}{7}{Orbital elements as a function of time for the propagation of the Galileo initial conditions in \autoref {tab:ICs_Galileo} for 200 years. The curves ``\Thalassa {}'' and ``\STELA {} (osc)'' refer to the osculating orbital elements obtained in the reference propagation with \Thalassa {}, and with the \STELA {} propagation for $L = 4$, $N_\mathrm {tess} = 0.4$ and $\Delta {t} = \SI {120}{h}$, which exhibit a significant overlap. The curve ``\STELA {} (mean)'' refers to the mean orbital elements obtained from the \STELA {} propagation. The semi-major axis is plotted as a difference from the initial osculating value.\relax }{figure.caption.2}{}}
\citation{Ely2014,Uphoff1973}
\citation{Gkolias2016}
\@writefile{lof}{\contentsline {figure}{\numberline {2}{\ignorespaces CPU time as a function of the errors on the osculating orbital elements after \num {200} years for the Galileo test case. The CPU time is measured as an average of the ones measured in 3 runs of both codes, and it does not take into account differences due to the implementation in different languages. The points are obtained with the formulations included in the {\texttt  {THALASSA}}\xspace  {} code (in black), and with {\texttt  {STELA}}\xspace  {} (in red). The label ``Cow'' refers to the Cowell formulation, whereas the labels ``EDr(t)'', ``EDr(c)'' and ``EDr(l)'' refer to the EDromo formulation in which the physical time is propagated through the Sundman transformation, a constant time element, and a linear time element, respectively. The label ``KS'' refers to the Kustaanheimo-Stiefel formulation. The ``{\texttt  {STELA}}\xspace  {}'' data series refers to propagations performed with $L = 4$ and $N_\mathrm  {tess} \Delta t = \SI {2}{\day }$ and integration time steps decreasing from \SI {12}{\day } to \SI {0.5}{\day }, whereas the results for {\texttt  {THALASSA}}\xspace  {} are obtained by decreasing the solver tolerance from \num {.e-4} to \num {.e-15}.\relax }}{9}{figure.caption.3}}
\newlabel{fig:Galileo_eff_dOrb}{{2}{9}{CPU time as a function of the errors on the osculating orbital elements after \num {200} years for the Galileo test case. The CPU time is measured as an average of the ones measured in 3 runs of both codes, and it does not take into account differences due to the implementation in different languages. The points are obtained with the formulations included in the \Thalassa {} code (in black), and with \STELA {} (in red). The label ``Cow'' refers to the Cowell formulation, whereas the labels ``EDr(t)'', ``EDr(c)'' and ``EDr(l)'' refer to the EDromo formulation in which the physical time is propagated through the Sundman transformation, a constant time element, and a linear time element, respectively. The label ``KS'' refers to the Kustaanheimo-Stiefel formulation. The ``\STELA {}'' data series refers to propagations performed with $L = 4$ and $N_\mathrm {tess} \Delta t = \SI {2}{\day }$ and integration time steps decreasing from \SI {12}{\day } to \SI {0.5}{\day }, whereas the results for \Thalassa {} are obtained by decreasing the solver tolerance from \num {.e-4} to \num {.e-15}.\relax }{figure.caption.3}{}}
\citation{Ferrando2008}
\citation{Lara2017}
\@writefile{lot}{\contentsline {table}{\numberline {2}{\ignorespaces Initial MJD and osculating orbital elements for the Simbol-X test case.\relax }}{10}{table.caption.4}}
\newlabel{tab:ICs_SimbolX}{{2}{10}{Initial MJD and osculating orbital elements for the Simbol-X test case.\relax }{table.caption.4}{}}
\@writefile{toc}{\contentsline {subsection}{\numberline {B}Simbol-X}{10}{subsection.3.2}}
\newlabel{subsec:SimbolX}{{III.B}{10}{Simbol-X}{subsection.3.2}{}}
\@writefile{lof}{\contentsline {figure}{\numberline {3}{\ignorespaces Orbital elements as a function of time for the propagation of the Simbol-X initial conditions in \autoref  {tab:ICs_SimbolX} for 83 years. The curve ``{\texttt  {THALASSA}}\xspace  {}'' refers to the osculating orbital elements obtained in the reference propagation. The curves ``\texttt  {STELA}, $L = 4$ (mean)'', ``$L = 4$ (osc)'' and ``$L = 5$ (mean)'' refer to the mean (osculating) orbital elements obtained from {\texttt  {STELA}}\xspace  {} with the reported values of the truncation order of the lunisolar expansions $L$ and with $\Delta {t} = \SI {48}{\hour }$, $N_\mathrm  {tess} = 20$. The re-entry dates of the {\texttt  {STELA}}\xspace  {} propagations differ with respect to the reference by up to two years.\relax }}{11}{figure.caption.5}}
\newlabel{fig:SimbolX_COE}{{3}{11}{Orbital elements as a function of time for the propagation of the Simbol-X initial conditions in \autoref {tab:ICs_SimbolX} for 83 years. The curve ``\Thalassa {}'' refers to the osculating orbital elements obtained in the reference propagation. The curves ``\texttt {STELA}, $L = 4$ (mean)'', ``$L = 4$ (osc)'' and ``$L = 5$ (mean)'' refer to the mean (osculating) orbital elements obtained from \STELA {} with the reported values of the truncation order of the lunisolar expansions $L$ and with $\Delta {t} = \SI {48}{\hour }$, $N_\mathrm {tess} = 20$. The re-entry dates of the \STELA {} propagations differ with respect to the reference by up to two years.\relax }{figure.caption.5}{}}
\@writefile{lof}{\contentsline {figure}{\numberline {4}{\ignorespaces CPU time as a function of the errors on the osculating orbital elements after 75 years of propagation for the Simbol-X test case. The CPU time is measured as an average of the ones measured in 3 runs of both codes, and it does not take into account differences due to the implementation in different languages. The points are obtained with the formulations included in the {\texttt  {THALASSA}}\xspace  {} code (black points), and with {\texttt  {STELA}}\xspace  {} (red points). The labels for the non-averaged formulations are the same as in \autoref  {fig:Galileo_eff_dOrb}. The propagations with {\texttt  {STELA}}\xspace  {} are reported for $L=4$ and $L=5$, and integration time steps decreasing from \SI {40}{\day } to \SI {1}{\day }; in both cases $N_\mathrm  {tess} {\Delta } t= \SI {40}{\day }$. The results with {\texttt  {THALASSA}}\xspace  {} are obtained by decreasing the solver tolerance from \num {e-4} to \num {e-15}.\relax }}{12}{figure.caption.6}}
\newlabel{fig:SimbolX_eff_dOrb}{{4}{12}{CPU time as a function of the errors on the osculating orbital elements after 75 years of propagation for the Simbol-X test case. The CPU time is measured as an average of the ones measured in 3 runs of both codes, and it does not take into account differences due to the implementation in different languages. The points are obtained with the formulations included in the \Thalassa {} code (black points), and with \STELA {} (red points). The labels for the non-averaged formulations are the same as in \autoref {fig:Galileo_eff_dOrb}. The propagations with \STELA {} are reported for $L=4$ and $L=5$, and integration time steps decreasing from \SI {40}{\day } to \SI {1}{\day }; in both cases $N_\mathrm {tess} {\Delta } t= \SI {40}{\day }$. The results with \Thalassa {} are obtained by decreasing the solver tolerance from \num {e-4} to \num {e-15}.\relax }{figure.caption.6}{}}
\citation{Davidson1964}
\citation{Szebehely1967}
\citation{Szebehely1967}
\citation{Szebehely1967}
\citation{Szebehely1967}
\citation{Szebehely1967}
\@writefile{lot}{\contentsline {table}{\numberline {3}{\ignorespaces Initial position and velocity for the test particle and the Moon in the geocentric coordinate system, derived from the dimensionless initial conditions in the synodic coordinate system in Reference\nobreakspace  {}\citenst {Szebehely1967} with $\mu _{\mathrm  {E}} = \SI {3.98600441e5}{\kilo \metre \cubed \per \second \squared }$ and $\mu _{\mathrm  {E}}/\mu _{\mathrm  {M}} = 1/81.45$.\relax }}{13}{table.caption.7}}
\newlabel{tab:ICs_periodic}{{3}{13}{Initial position and velocity for the test particle and the Moon in the geocentric coordinate system, derived from the dimensionless initial conditions in the synodic coordinate system in Reference~\citenst {Szebehely1967} with $\mu _{\mathrm {E}} = \SI {3.98600441e5}{\kilo \metre \cubed \per \second \squared }$ and $\mu _{\mathrm {E}}/\mu _{\mathrm {M}} = 1/81.45$.\relax }{table.caption.7}{}}
\@writefile{toc}{\contentsline {section}{\numberline {IV}Performance for a translunar orbit}{13}{section.4}}
\newlabel{sec:periodic}{{IV}{13}{Performance for a translunar orbit}{section.4}{}}
\citation{Amato2017}
\newlabel{fig:Davidson_ICRF}{{5a}{14}{Geocentric.\relax }{figure.caption.8}{}}
\newlabel{sub@fig:Davidson_ICRF}{{a}{14}{Geocentric.\relax }{figure.caption.8}{}}
\newlabel{fig:Davidson_SYN}{{5b}{14}{Synodic.\relax }{figure.caption.8}{}}
\newlabel{sub@fig:Davidson_SYN}{{b}{14}{Synodic.\relax }{figure.caption.8}{}}
\@writefile{lof}{\contentsline {figure}{\numberline {5}{\ignorespaces Periodic orbit displayed in the geocentric (left panel) and synodic (right panel) coordinate systems, for a duration of 1 synodic period $T_\mathrm  {syn} = \SI {127.92}{\day }$ and in units of lunar semi-major axis $a_\mathrm  {M} = \SI {384400}{\kilo \metre }$. The Earth and the Moon are displayed to scale as gray circles. The Moon's orbit is displayed with a gray line in the left panel. The initial conditions (\autoref  {tab:ICs_periodic}) correspond to the points $(x_0,y_0) = (1.162,0)$, $(\xi _0,\eta _0) = (1.150,0)$. The trajectory is plotted in black where the distance from the Moon is greater than $R_\mathrm  {sw} = 1.1 R_\text  {Hill}$, and in red otherwise. The dashed red circle is centered on the Moon and is of radius $R_\mathrm  {sw}$. Compare the right panel with Fig. 9.24(b) of Reference\nobreakspace  {}\citenst {Szebehely1967}.\relax }}{14}{figure.caption.8}}
\newlabel{fig:Davidson_1T}{{5}{14}{Periodic orbit displayed in the geocentric (left panel) and synodic (right panel) coordinate systems, for a duration of 1 synodic period $T_\mathrm {syn} = \SI {127.92}{\day }$ and in units of lunar semi-major axis $a_\mathrm {M} = \SI {384400}{\kilo \metre }$. The Earth and the Moon are displayed to scale as gray circles. The Moon's orbit is displayed with a gray line in the left panel. The initial conditions (\autoref {tab:ICs_periodic}) correspond to the points $(x_0,y_0) = (1.162,0)$, $(\xi _0,\eta _0) = (1.150,0)$. The trajectory is plotted in black where the distance from the Moon is greater than $R_\mathrm {sw} = 1.1 R_\text {Hill}$, and in red otherwise. The dashed red circle is centered on the Moon and is of radius $R_\mathrm {sw}$. Compare the right panel with Fig. 9.24(b) of Reference~\citenst {Szebehely1967}.\relax }{figure.caption.8}{}}
\newlabel{fig:Davidson_eff_CPU}{{6a}{15}{CPU time.\relax }{figure.caption.9}{}}
\newlabel{sub@fig:Davidson_eff_CPU}{{a}{15}{CPU time.\relax }{figure.caption.9}{}}
\newlabel{fig:Davidson_eff_calls}{{6b}{15}{Right-hand side evaluations.\relax }{figure.caption.9}{}}
\newlabel{sub@fig:Davidson_eff_calls}{{b}{15}{Right-hand side evaluations.\relax }{figure.caption.9}{}}
\newlabel{fig:Davidson_eff_steps}{{6c}{15}{Steps taken.\relax }{figure.caption.9}{}}
\newlabel{sub@fig:Davidson_eff_steps}{{c}{15}{Steps taken.\relax }{figure.caption.9}{}}
\@writefile{lof}{\contentsline {figure}{\numberline {6}{\ignorespaces CPU time (left panel), right-hand side evaluations (middle panel), and steps taken (right panel) as a function of the position error measured after 1 synodic period $T_\mathrm  {syn} = \SI {127.92}{\day }$ of the periodic orbit with initial conditions displayed in \autoref  {tab:ICs_periodic}. The data series ``Cow'' and ``KS'' denote propagations performed with the Cowell and Kustaanheimo-Stiefel formulations, respectively. Red markers are relative to propagations in which the trajectory is split according to the algorithm in \autoref  {sec:traj_split}, whereas black markers are obtained by keeping the coordinate system selenocentric during the whole integration.\relax }}{15}{figure.caption.9}}
\newlabel{fig:Davidson_eff}{{6}{15}{CPU time (left panel), right-hand side evaluations (middle panel), and steps taken (right panel) as a function of the position error measured after 1 synodic period $T_\mathrm {syn} = \SI {127.92}{\day }$ of the periodic orbit with initial conditions displayed in \autoref {tab:ICs_periodic}. The data series ``Cow'' and ``KS'' denote propagations performed with the Cowell and Kustaanheimo-Stiefel formulations, respectively. Red markers are relative to propagations in which the trajectory is split according to the algorithm in \autoref {sec:traj_split}, whereas black markers are obtained by keeping the coordinate system selenocentric during the whole integration.\relax }{figure.caption.9}{}}
\@writefile{toc}{\contentsline {section}{\numberline {V}Conclusions and outlook}{15}{section.5}}
\newlabel{sec:summ_out}{{V}{15}{Conclusions and outlook}{section.5}{}}
\@writefile{toc}{\contentsline {subsection}{\numberline {A}Concluding remarks}{15}{subsection.5.1}}
\citation{Archinal2011}
\bibstyle{unsrt}
\bibdata{Thalassa}
\bibcite{Koltiska2016}{{1}{2016}{{Koltiska et~al.}}{{Koltiska, Du, Prochoda, and Kelly}}}
\bibcite{Colombo2014}{{2}{2014}{{{Colombo} et~al.}}{{{Colombo}, {Letizia}, {Alessi}, and {Landgraf}}}}
\bibcite{Colombo2015}{{3}{2015}{{Colombo}}{{}}}
\bibcite{Rosengren2017}{{4}{2017}{{Rosengren et~al.}}{{Rosengren, Amato, Daquin, and Gkolias}}}
\bibcite{Cefola1974}{{5}{1974}{{{Cefola} et~al.}}{{{Cefola}, {Long}, and {Holloway}}}}
\bibcite{Velez1974}{{6}{1974}{{{Velez} and {Fuchs}}}{{}}}
\bibcite{McClain1977}{{7}{1977}{{McClain}}{{}}}
\bibcite{McClain1978}{{8}{1978}{{McClain}}{{}}}
\@writefile{toc}{\contentsline {subsection}{\numberline {B}Outlook}{16}{subsection.5.2}}
\bibcite{Danielson1995}{{9}{1995}{{{Danielson} et~al.}}{{{Danielson}, {Sagovac}, {Neta}, and {Early}}}}
\bibcite{Metris1995}{{10}{1995}{{{M\IeC {\'e}tris} and {Exertier}}}{{}}}
\bibcite{Cefola2014}{{11}{2014}{{{Cefola} et~al.}}{{{Cefola}, {Folcik}, {Di-Costanzo}, {Bernard}, {Setty}, and {San-Juan}}}}
\bibcite{Uphoff1973}{{12}{1973}{{Uphoff}}{{}}}
\bibcite{Ely2014}{{13}{2014}{{Ely}}{{}}}
\bibcite{Lara2017}{{14}{2017}{{{Lara} et~al.}}{{{Lara}, {San-Juan}, and {Hautesserres}}}}
\bibcite{Stiefel1971}{{15}{1971}{{{Stiefel} and {Scheifele}}}{{}}}
\bibcite{Janin1974}{{16}{1974}{{Janin}}{{}}}
\bibcite{Bond1996}{{17}{1996}{{{Bond} and {Allman}}}{{}}}
\bibcite{Pelaez2007}{{18}{2007}{{{Pel\IeC {\'a}ez} et~al.}}{{{Pel\IeC {\'a}ez}, {Hedo}, and {Rodr\IeC {\'\i }guez de Andr\IeC {\'e}s}}}}
\bibcite{Bau2013}{{19}{2013}{{{Ba\IeC {\`u}} et~al.}}{{{Ba\IeC {\`u}}, {Bombardelli}, and {Pel\IeC {\'a}ez}}}}
\bibcite{Bau2015}{{20}{2015}{{{Ba\IeC {\`u}} et~al.}}{{{Ba\IeC {\`u}}, {Bombardelli}, {Pel\IeC {\'a}ez}, and {Lorenzini}}}}
\bibcite{Roa2015}{{21}{2015}{{{Roa} and {Pel\IeC {\'a}ez}}}{{}}}
\bibcite{Bau2016}{{22}{2016}{{{Ba\IeC {\`u}} et~al.}}{{{Ba\IeC {\`u}}, {Amato}, {Bombardelli}, and {Milani}}}}
\bibcite{Musen1961}{{23}{1961}{{Musen}}{{}}}
\bibcite{Amato2017}{{24}{2017}{{Amato}}{{}}}
\bibcite{Ferrando2008}{{25}{2008}{{{Ferrando} et~al.}}{{{Ferrando}, {Arnaud}, {Briel}, {Cavazutti}, {Cl{\'e}dassou}, {Counil}, {Fiore}, {Giommi}, {Goldwurm}, {Lamarle}, {Laurent}, {Lebrun}, {Malaguti}, {Mereghetti}, {Micela}, {Pareschi}, {Piermaria}, {Roques}, and {Tagliaferri}}}}
\bibcite{Hindmarsh1983}{{26}{1983}{{Hindmarsh}}{{}}}
\bibcite{Hiebert1980}{{27}{1980}{{{Hiebert} and {Shampine}}}{{}}}
\bibcite{Meeus1998}{{28}{1998}{{Meeus}}{{}}}
\bibcite{Acton1996}{{29}{1996}{{Acton}}{{}}}
\bibcite{CNES2016}{{30}{2016}{{CNES}}{{}}}
\bibcite{Bull2001}{{31}{2001}{{{Bull} et~al.}}{{{Bull}, {Smith}, {Pottage}, and {Freeman}}}}
\bibcite{Eichhorn2016}{{32}{2016}{{{Eichhorn} et~al.}}{{{Eichhorn}, {Reiner}, {Cano}, and F.}}}
\bibcite{Gkolias2016}{{33}{2016}{{{Gkolias} et~al.}}{{{Gkolias}, {Daquin}, {Gachet}, and {Rosengren}}}}
\bibcite{Davidson1964}{{34}{1964}{{Davidson}}{{}}}
\bibcite{Szebehely1967}{{35}{1967}{{Szebehely}}{{}}}
\bibcite{Archinal2011}{{36}{2011}{{{Archinal} et~al.}}{{{Archinal}, {A'Hearn}, {Bowell}, {Conrad}, {Consolmagno}, {Courtin}, {Fukushima}, {Hestroffer}, {Hilton}, {Krasinsky}, {Neumann}, {Oberst}, {Seidelmann}, {Stooke}, {Tholen}, {Thomas}, and {Williams}}}}
